
description:	Junk/test

wavelength:	400
Start Data Timestamp: 2018-Jun-26 14:41:37
Total readings being taken, N = 4
nth reading: n
stage_position: s
optical_reading: o
n	s	o
0	-110	(-8.009899999999998e-11, 1.5897977135157795e-10)
1	-140	(-5.273829999999999e-10, 4.010558827644846e-11)
2	-170	(8.68745e-10, 2.3668280461410772e-12)
3	-200	(-6.173899999999998e-11, 1.6059807090684496e-10)
End Data Timestamp: 2018-Jun-26 14:41:37


description:	Junk/test

wavelength:	550
Start Data Timestamp: 2018-Jun-26 14:43:08
Total readings being taken, N = 4
nth reading: n
stage_position: s
optical_reading: o
n	s	o
0	-110	(-1.0570899999999998e-10, 4.925604144670987e-11)
1	-140	(-1.31941e-10, 5.683650780088446e-11)
2	-170	(4.0739799999999994e-10, 3.5791334146689753e-12)
3	-200	(-4.817430000000001e-10, 8.365385855416353e-11)
End Data Timestamp: 2018-Jun-26 14:43:08


description:	Junk/test

wavelength:	700
Start Data Timestamp: 2018-Jun-26 14:44:38
Total readings being taken, N = 4
nth reading: n
stage_position: s
optical_reading: o
n	s	o
0	-110	(1.0059e-11, 4.770266888759999e-11)
1	-140	(-1.02555e-10, 9.184038041624176e-11)
2	-170	(2.31734e-10, 1.133843395006559e-10)
3	-200	(-3.4209399999999994e-10, 1.2473909316649694e-10)
End Data Timestamp: 2018-Jun-26 14:44:38


description:	Junk/test

wavelength:	850
Start Data Timestamp: 2018-Jun-26 14:46:10
Total readings being taken, N = 4
nth reading: n
stage_position: s
optical_reading: o
n	s	o
0	-110	(3.6278e-11, 5.164398625203132e-11)
1	-140	(2.13e-12, 1.5565610074777022e-10)
2	-170	(-6.1396e-11, 2.2918422149877593e-10)
3	-200	(1.39137e-10, 2.0007341085461608e-10)
End Data Timestamp: 2018-Jun-26 14:46:10

